side_name,community_area_number
Central,8
Central,32
Central,33
North Side,5
North Side,6
North Side,7
North Side,21
North Side,22
Far North Side,1
Far North Side,2
Far North Side,3
Far North Side,4
Far North Side,77
Far North Side,12
Far North Side,13
Far North Side,14
Far North Side,9
Far North Side,10
Far North Side,11
Far North Side,76
Northwest Side,15
Northwest Side,16
Northwest Side,17
Northwest Side,18
Northwest Side,19
Northwest Side,20
West Side,23
West Side,24
West Side,25
West Side,26
West Side,27
West Side,28
West Side,29
West Side,30
West Side,31
South Side,34
South Side,35
South Side,36
South Side,37
South Side,38
South Side,39
South Side,40
South Side,41
South Side,42
South Side,43
South Side,60
South Side,69
Southwest Side,56
Southwest Side,57
Southwest Side,58
Southwest Side,59
Southwest Side,61
Southwest Side,62
Southwest Side,63
Southwest Side,64
Southwest Side,65
Southwest Side,66
Southwest Side,67
Southwest Side,68
Far Southeast Side,44
Far Southeast Side,45
Far Southeast Side,46
Far Southeast Side,47
Far Southeast Side,48
Far Southeast Side,49
Far Southeast Side,50
Far Southeast Side,51
Far Southeast Side,52
Far Southeast Side,53
Far Southeast Side,54
Far Southeast Side,55
Far Southwest Side,70
Far Southwest Side,71
Far Southwest Side,72
Far Southwest Side,73
Far Southwest Side,74
Far Southwest Side,75